{
  "resource": "Groups",
  "http_method": "GET",
  "route": "/groups/:id",
  "description": "Get details for a specific group",
  "explanation": null,
  "parameters": [
    {
      "required": true,
      "name": "id",
      "description": "The group id"
    }
  ],
  "response_fields": [

  ],
  "requests": [
    {
      "request_method": "GET",
      "request_path": "/groups/1?account_id=1&account_token=3348a160a25f85f677ac03447fb072ec&timestamp=1460572335",
      "request_body": null,
      "request_headers": {
        "Host": "example.org",
        "Cookie": ""
      },
      "request_query_parameters": {
        "account_id": "1",
        "account_token": "3348a160a25f85f677ac03447fb072ec",
        "timestamp": "1460572335"
      },
      "request_content_type": null,
      "response_status": 200,
      "response_status_text": "OK",
      "response_body": "{\"group\":{\"id\":1,\"name\":\"Aut quia ut.\"}}",
      "response_headers": {
        "X-Frame-Options": "SAMEORIGIN",
        "X-XSS-Protection": "1; mode=block",
        "X-Content-Type-Options": "nosniff",
        "X-API-Version": "v11.2.3",
        "ETag": "\"abacfd2696335d1f6afb7374463a8a0a\"",
        "Last-Modified": "Wed, 13 Apr 2016 18:32:14 GMT",
        "Content-Type": "application/json; charset=utf-8",
        "Cache-Control": "max-age=0, private, must-revalidate",
        "Vary": "Origin",
        "X-Rack-CORS": "preflight-hit; no-origin",
        "X-Request-Id": "ebdc33e4-7e4f-43cb-a7c9-5b75373d6b6d",
        "X-Runtime": "0.029567",
        "Content-Length": "40"
      },
      "response_content_type": "application/json; charset=utf-8",
      "curl": null
    }
  ]
}