{
  "resource": "Brands",
  "http_method": "GET",
  "route": "/brands",
  "description": "Get a list of brands",
  "explanation": null,
  "parameters": [
    {
      "name": "limit",
      "description": "How many records to include, default: 10"
    },
    {
      "name": "offset",
      "description": "How many records to skip, default: 0"
    },
    {
      "name": "since",
      "description": "Skip records which have not been updated before this date (format: YYYY-MM-DD)"
    },
    {
      "name": "q",
      "description": "Term for searching brands by name"
    }
  ],
  "response_fields": [

  ],
  "requests": [
    {
      "request_method": "GET",
      "request_path": "/brands?account_id=67&account_token=61b9ab98881784da7a11eea49e5d3bb8&timestamp=1460572353",
      "request_body": null,
      "request_headers": {
        "Host": "example.org",
        "Cookie": ""
      },
      "request_query_parameters": {
        "account_id": "67",
        "account_token": "61b9ab98881784da7a11eea49e5d3bb8",
        "timestamp": "1460572353"
      },
      "request_content_type": null,
      "response_status": 200,
      "response_status_text": "OK",
      "response_body": "{\"images\":[],\"brands\":[{\"id\":11,\"name\":\"Hyatt, Keebler and Runte\",\"seo_slug\":\"hyatt-keebler-and-runte\",\"description\":\"Harum facilis totam et adipisci.\",\"url\":\"http://stoltenberg.com/lexi\",\"created_at\":\"2016-04-13T18:32:33.891Z\",\"updated_at\":\"2016-04-13T18:32:33.891Z\",\"image_ids\":[]}]}",
      "response_headers": {
        "X-Frame-Options": "SAMEORIGIN",
        "X-XSS-Protection": "1; mode=block",
        "X-Content-Type-Options": "nosniff",
        "X-API-Version": "v11.2.3",
        "ETag": "\"1cb58539b864d3ceecf4b10accc95d64\"",
        "Content-Type": "application/json; charset=utf-8",
        "Cache-Control": "max-age=0, private, must-revalidate",
        "Vary": "Origin",
        "X-Rack-CORS": "preflight-hit; no-origin",
        "X-Request-Id": "70e328c1-96d2-4daf-9aef-05d57ba63ca6",
        "X-Runtime": "0.027082",
        "Content-Length": "285"
      },
      "response_content_type": "application/json; charset=utf-8",
      "curl": null
    }
  ]
}