{
  "resource": "SocialFeeds",
  "http_method": "POST",
  "route": "/social-feeds",
  "description": "Create a new social feed",
  "explanation": null,
  "parameters": [
    {
      "scope": "social_feed",
      "required": true,
      "name": "social_network_id",
      "description": "The id of the social network"
    },
    {
      "scope": "social_feed",
      "name": "sociable_type",
      "description": "The name of the model to which this feed is associated"
    },
    {
      "scope": "social_feed",
      "name": "sociable_id",
      "description": "The id of the record to which this feed is associated"
    },
    {
      "scope": "social_feed",
      "required": true,
      "name": "properties",
      "description": "A hash of the URLs or appids or whatnot of the feed/social network"
    },
    {
      "scope": "social_feed",
      "name": "is_active",
      "description": "Whether the feed is active"
    },
    {
      "scope": "social_feed",
      "name": "feed_key",
      "description": "The key for the feed"
    }
  ],
  "response_fields": [

  ],
  "requests": [
    {
      "request_method": "POST",
      "request_path": "/social-feeds",
      "request_body": "social_feed[social_network_id]=4&social_feed[sociable_type]=Retailer&social_feed[sociable_id]=1&social_feed[properties]=%7B%22url%22%3A%22http%3A%2F%2Fmedhurstkunde.com%2Fmyrtice%22%7D&social_feed[is_active]=true&account_id=19&account_token=1bd12d29a3d100673088e4f0eac6b941&timestamp=1460572349",
      "request_headers": {
        "Host": "example.org",
        "Content-Type": "application/x-www-form-urlencoded",
        "Cookie": ""
      },
      "request_query_parameters": {
      },
      "request_content_type": "application/x-www-form-urlencoded",
      "response_status": 201,
      "response_status_text": "Created",
      "response_body": "{\"social_feed\":{\"id\":4,\"properties\":{\"url\":\"http://medhurstkunde.com/myrtice\"},\"name\":\"MyFace\",\"created_at\":\"2016-04-13T18:32:29.898Z\",\"updated_at\":\"2016-04-13T18:32:29.898Z\"}}",
      "response_headers": {
        "X-Frame-Options": "SAMEORIGIN",
        "X-XSS-Protection": "1; mode=block",
        "X-Content-Type-Options": "nosniff",
        "X-API-Version": "v11.2.3",
        "Location": "http://example.org/social-feeds/4",
        "Content-Type": "application/json; charset=utf-8",
        "Vary": "Origin",
        "X-Rack-CORS": "preflight-hit; no-origin",
        "ETag": "W/\"a77d559799944c719dd88fff00ebbe0f\"",
        "Cache-Control": "max-age=0, private, must-revalidate",
        "X-Request-Id": "24cf93a1-3f8c-4e18-8a27-dd685398cf9f",
        "X-Runtime": "0.023701",
        "Content-Length": "176"
      },
      "response_content_type": "application/json; charset=utf-8",
      "curl": null
    }
  ]
}