{
  "resource": "Malls",
  "http_method": "GET",
  "route": "/malls/:id/social-feeds",
  "description": "Get a list of social network feeds for a specific mall",
  "explanation": null,
  "parameters": [
    {
      "required": true,
      "name": "id",
      "description": "The id of the mall for which to retrieve social network feeds"
    },
    {
      "name": "limit",
      "description": "How many records to include, default: 10"
    },
    {
      "name": "offset",
      "description": "How many records to skip, default: 0"
    }
  ],
  "response_fields": [

  ],
  "requests": [
    {
      "request_method": "GET",
      "request_path": "/malls/6/social-feeds?account_id=12&account_token=fa5ad664f9c14123df17505f6c68e705&timestamp=1460572348",
      "request_body": null,
      "request_headers": {
        "Host": "example.org",
        "Cookie": ""
      },
      "request_query_parameters": {
        "account_id": "12",
        "account_token": "fa5ad664f9c14123df17505f6c68e705",
        "timestamp": "1460572348"
      },
      "request_content_type": null,
      "response_status": 200,
      "response_status_text": "OK",
      "response_body": "{\"social_feeds\":[{\"id\":1,\"properties\":{\"url\":\"https://myface.com/Mall1\",\"appID\":\"0123abcf0123abcf0123abcf0123abcf\"},\"name\":\"MyFace\",\"created_at\":\"2016-04-13T18:32:28.492Z\",\"updated_at\":\"2016-04-13T18:32:28.494Z\"}]}",
      "response_headers": {
        "X-Frame-Options": "SAMEORIGIN",
        "X-XSS-Protection": "1; mode=block",
        "X-Content-Type-Options": "nosniff",
        "X-API-Version": "v11.2.3",
        "ETag": "\"d24d3ad6709f11eda2dcca7c06651dca\"",
        "Content-Type": "application/json; charset=utf-8",
        "Cache-Control": "max-age=0, private, must-revalidate",
        "Vary": "Origin",
        "X-Rack-CORS": "preflight-hit; no-origin",
        "X-Request-Id": "93979a97-7db3-48bd-8542-7ad73f2519cb",
        "X-Runtime": "0.040640",
        "Content-Length": "214"
      },
      "response_content_type": "application/json; charset=utf-8",
      "curl": null
    }
  ]
}