{
  "resource": "Malls",
  "http_method": "GET",
  "route": "/malls/:id/theaters",
  "description": "Get a list of theaters for a specific mall",
  "explanation": null,
  "parameters": [
    {
      "required": true,
      "name": "id",
      "description": "The id of the mall for which to retrieve theaters"
    },
    {
      "name": "limit",
      "description": "How many records to include, default: 10"
    },
    {
      "name": "offset",
      "description": "How many records to skip, default: 0"
    }
  ],
  "response_fields": [

  ],
  "requests": [
    {
      "request_method": "GET",
      "request_path": "/malls/6/theaters?account_id=12&account_token=fa5ad664f9c14123df17505f6c68e705&timestamp=1460572348",
      "request_body": null,
      "request_headers": {
        "Host": "example.org",
        "Cookie": ""
      },
      "request_query_parameters": {
        "account_id": "12",
        "account_token": "fa5ad664f9c14123df17505f6c68e705",
        "timestamp": "1460572348"
      },
      "request_content_type": null,
      "response_status": 200,
      "response_status_text": "OK",
      "response_body": "{\"images\":[],\"theaters\":[{\"id\":1,\"name\":\"Welch, Mills and Thiel\",\"sort_name\":\"Welch, Mills and Thiel\",\"store_id\":5,\"seo_slug\":\"welch-mills-and-thiel\",\"address\":\"53129 Granville Stravenue\",\"city\":\"East Calistaton\",\"state\":\"VT\",\"zip\":\"90702\",\"phone\":\"469.307.5829\",\"open_at\":null,\"close_at\":null,\"url\":\"http://schinnerfeeney.net/delpha\",\"created_at\":\"2016-04-13T18:32:28.646Z\",\"updated_at\":\"2016-04-13T18:32:28.649Z\",\"image_ids\":[]}]}",
      "response_headers": {
        "X-Frame-Options": "SAMEORIGIN",
        "X-XSS-Protection": "1; mode=block",
        "X-Content-Type-Options": "nosniff",
        "X-API-Version": "v11.2.3",
        "ETag": "\"beb8b976841a91376c37d3458f67a91b\"",
        "Content-Type": "application/json; charset=utf-8",
        "Cache-Control": "max-age=0, private, must-revalidate",
        "Vary": "Origin",
        "X-Rack-CORS": "preflight-hit; no-origin",
        "X-Request-Id": "8fe28693-bf17-441c-bb4f-c15233c10113",
        "X-Runtime": "0.041423",
        "Content-Length": "432"
      },
      "response_content_type": "application/json; charset=utf-8",
      "curl": null
    }
  ]
}