{
  "resource": "Malls",
  "http_method": "GET",
  "route": "/malls/:id/current-hours",
  "description": "Get the current hours for a specific mall",
  "explanation": null,
  "parameters": [
    {
      "required": true,
      "name": "id",
      "description": "The id of the mall for which to retrieve hours"
    }
  ],
  "response_fields": [

  ],
  "requests": [
    {
      "request_method": "GET",
      "request_path": "/malls/6/current-hours?account_id=12&account_token=fa5ad664f9c14123df17505f6c68e705&timestamp=1460572348",
      "request_body": null,
      "request_headers": {
        "Host": "example.org",
        "Cookie": ""
      },
      "request_query_parameters": {
        "account_id": "12",
        "account_token": "fa5ad664f9c14123df17505f6c68e705",
        "timestamp": "1460572348"
      },
      "request_content_type": null,
      "response_status": 200,
      "response_status_text": "OK",
      "response_body": "{\"this_week\":[{\"date\":\"2016-04-11\",\"day\":\"Monday\",\"hours_text\":\"10-9\",\"description\":null},{\"date\":\"2016-04-12\",\"day\":\"Tuesday\",\"hours_text\":\"10-9\",\"description\":null},{\"date\":\"2016-04-13\",\"day\":\"Wednesday\",\"hours_text\":\"10-9\",\"description\":null},{\"date\":\"2016-04-14\",\"day\":\"Thursday\",\"hours_text\":\"10-9\",\"description\":null},{\"date\":\"2016-04-15\",\"day\":\"Friday\",\"hours_text\":\"10-10\",\"description\":null},{\"date\":\"2016-04-16\",\"day\":\"Saturday\",\"hours_text\":\"10-10\",\"description\":null},{\"date\":\"2016-04-17\",\"day\":\"Sunday\",\"hours_text\":\"10-6\",\"description\":null}],\"this_month\":[{\"date\":\"2016-04-01\",\"day\":\"Friday\",\"hours_text\":\"10-10\",\"description\":null},{\"date\":\"2016-04-02\",\"day\":\"Saturday\",\"hours_text\":\"10-10\",\"description\":null},{\"date\":\"2016-04-03\",\"day\":\"Sunday\",\"hours_text\":\"10-6\",\"description\":null},{\"date\":\"2016-04-04\",\"day\":\"Monday\",\"hours_text\":\"10-9\",\"description\":null},{\"date\":\"2016-04-05\",\"day\":\"Tuesday\",\"hours_text\":\"10-9\",\"description\":null},{\"date\":\"2016-04-06\",\"day\":\"Wednesday\",\"hours_text\":\"10-9\",\"description\":null},{\"date\":\"2016-04-07\",\"day\":\"Thursday\",\"hours_text\":\"10-9\",\"description\":null},{\"date\":\"2016-04-08\",\"day\":\"Friday\",\"hours_text\":\"10-10\",\"description\":null},{\"date\":\"2016-04-09\",\"day\":\"Saturday\",\"hours_text\":\"10-10\",\"description\":null},{\"date\":\"2016-04-10\",\"day\":\"Sunday\",\"hours_text\":\"10-6\",\"description\":null},{\"date\":\"2016-04-11\",\"day\":\"Monday\",\"hours_text\":\"10-9\",\"description\":null},{\"date\":\"2016-04-12\",\"day\":\"Tuesday\",\"hours_text\":\"10-9\",\"description\":null},{\"date\":\"2016-04-13\",\"day\":\"Wednesday\",\"hours_text\":\"10-9\",\"description\":null},{\"date\":\"2016-04-14\",\"day\":\"Thursday\",\"hours_text\":\"10-9\",\"description\":null},{\"date\":\"2016-04-15\",\"day\":\"Friday\",\"hours_text\":\"10-10\",\"description\":null},{\"date\":\"2016-04-16\",\"day\":\"Saturday\",\"hours_text\":\"10-10\",\"description\":null},{\"date\":\"2016-04-17\",\"day\":\"Sunday\",\"hours_text\":\"10-6\",\"description\":null},{\"date\":\"2016-04-18\",\"day\":\"Monday\",\"hours_text\":\"10-9\",\"description\":null},{\"date\":\"2016-04-19\",\"day\":\"Tuesday\",\"hours_text\":\"10-9\",\"description\":null},{\"date\":\"2016-04-20\",\"day\":\"Wednesday\",\"hours_text\":\"10-9\",\"description\":null},{\"date\":\"2016-04-21\",\"day\":\"Thursday\",\"hours_text\":\"10-9\",\"description\":null},{\"date\":\"2016-04-22\",\"day\":\"Friday\",\"hours_text\":\"10-10\",\"description\":null},{\"date\":\"2016-04-23\",\"day\":\"Saturday\",\"hours_text\":\"10-10\",\"description\":null},{\"date\":\"2016-04-24\",\"day\":\"Sunday\",\"hours_text\":\"10-6\",\"description\":null},{\"date\":\"2016-04-25\",\"day\":\"Monday\",\"hours_text\":\"10-9\",\"description\":null},{\"date\":\"2016-04-26\",\"day\":\"Tuesday\",\"hours_text\":\"10-9\",\"description\":null},{\"date\":\"2016-04-27\",\"day\":\"Wednesday\",\"hours_text\":\"10-9\",\"description\":null},{\"date\":\"2016-04-28\",\"day\":\"Thursday\",\"hours_text\":\"10-9\",\"description\":null},{\"date\":\"2016-04-29\",\"day\":\"Friday\",\"hours_text\":\"10-10\",\"description\":null},{\"date\":\"2016-04-30\",\"day\":\"Saturday\",\"hours_text\":\"10-10\",\"description\":null}],\"today\":[{\"date\":\"2016-04-13\",\"day\":\"Wednesday\",\"hours_text\":\"10-9\",\"description\":null}]}",
      "response_headers": {
        "X-Frame-Options": "SAMEORIGIN",
        "X-XSS-Protection": "1; mode=block",
        "X-Content-Type-Options": "nosniff",
        "X-API-Version": "v11.2.3",
        "Content-Type": "application/json; charset=utf-8",
        "Vary": "Origin",
        "X-Rack-CORS": "preflight-hit; no-origin",
        "ETag": "W/\"3bd6b01a19c8db1a8f9cf6fec38577ee\"",
        "Cache-Control": "max-age=0, private, must-revalidate",
        "X-Request-Id": "dd85544f-168e-4958-beb3-1388305b684e",
        "X-Runtime": "0.035581",
        "Content-Length": "2985"
      },
      "response_content_type": "application/json; charset=utf-8",
      "curl": null
    }
  ]
}