{
  "resource": "Retailers",
  "http_method": "GET",
  "route": "/retailers/:id/deals",
  "description": "Get a list of deals for a specific retailer",
  "explanation": null,
  "parameters": [
    {
      "required": true,
      "name": "id",
      "description": "The id of the retailer for which to retrieve deals"
    },
    {
      "name": "limit",
      "description": "How many records to include, default: 10"
    },
    {
      "name": "offset",
      "description": "How many records to skip, default: 0"
    }
  ],
  "response_fields": [

  ],
  "requests": [
    {
      "request_method": "GET",
      "request_path": "/retailers/27/deals?account_id=78&account_token=da7260685b9360513643a6336ffa1251&timestamp=1460572355",
      "request_body": null,
      "request_headers": {
        "Host": "example.org",
        "Cookie": ""
      },
      "request_query_parameters": {
        "account_id": "78",
        "account_token": "da7260685b9360513643a6336ffa1251",
        "timestamp": "1460572355"
      },
      "request_content_type": null,
      "response_status": 200,
      "response_status_text": "OK",
      "response_body": "{\"images\":[],\"tags\":[],\"deals\":[{\"id\":6,\"retailer_id\":27,\"sales_type\":null,\"title\":\"Rem eveniet doloribus aliquid aut eius deleniti quod perspiciatis ut.\",\"seo_slug\":\"rem-eveniet-doloribus-aliquid-aut-eius-deleniti-quod-perspiciatis-ut\",\"name\":\"Johns and Sons\",\"sort_name\":\"Johns and Sons\",\"retailer_name\":\"Johns and Sons\",\"retailer_sort_name\":\"Johns and Sons\",\"external_url\":null,\"display_at\":\"2016-04-12T18:32:35.835Z\",\"start_at\":\"2016-04-12T18:32:35.835Z\",\"end_at\":\"2016-04-20T18:32:35.835Z\",\"description\":\"Ad dolor assumenda iusto voluptatem asperiores quia natus accusamus harum a id.\",\"fine_print_description\":null,\"is_local\":false,\"is_featured\":false,\"is_active\":true,\"cached_tag_list\":null,\"created_at\":\"2016-04-13T18:32:35.838Z\",\"updated_at\":\"2016-04-13T18:32:35.838Z\",\"image_ids\":[],\"tag_ids\":[]}]}",
      "response_headers": {
        "X-Frame-Options": "SAMEORIGIN",
        "X-XSS-Protection": "1; mode=block",
        "X-Content-Type-Options": "nosniff",
        "X-API-Version": "v11.2.3",
        "ETag": "\"69a3dfc01e22d1b74c534b9fd39e030f\"",
        "Content-Type": "application/json; charset=utf-8",
        "Cache-Control": "max-age=0, private, must-revalidate",
        "Vary": "Origin",
        "X-Rack-CORS": "preflight-hit; no-origin",
        "X-Request-Id": "7769b6ea-501a-4676-918e-811900f2c694",
        "X-Runtime": "0.044930",
        "Content-Length": "808"
      },
      "response_content_type": "application/json; charset=utf-8",
      "curl": null
    }
  ]
}