{
  "resource": "Retailers",
  "http_method": "PATCH",
  "route": "/retailers/:id",
  "description": "Update an existing retailer",
  "explanation": null,
  "parameters": [
    {
      "require": true,
      "name": "id",
      "description": "The id of the retailer to update"
    },
    {
      "scope": "retailer",
      "name": "name",
      "description": "The name of the retailer"
    },
    {
      "scope": "retailer",
      "name": "sort_name",
      "description": "A version of the retailer name to be used when sorting many retailers."
    },
    {
      "scope": "retailer",
      "name": "seo_slug",
      "description": "The URL slug for the retailer"
    },
    {
      "scope": "retailer",
      "limit": 3000,
      "name": "description",
      "description": "A short description of the retailer as might be used in a listing of many retailers"
    },
    {
      "scope": "retailer",
      "name": "nick_name",
      "description": "The nick name for the retailer"
    },
    {
      "scope": "retailer",
      "name": "phone",
      "description": "The primary phone number for the retailer"
    },
    {
      "scope": "retailer",
      "name": "email",
      "description": "The primary email address for the retailer"
    },
    {
      "scope": "retailer",
      "limit": 300,
      "name": "url",
      "description": "The external URL for the main corporate site of the retailer"
    },
    {
      "scope": "retailer",
      "limit": 300,
      "name": "url_text",
      "description": "The text that should be displayed when building the external links for the retailer"
    },
    {
      "scope": "retailer",
      "limit": 2000,
      "name": "store_text",
      "description": "The description of the retailer"
    },
    {
      "scope": "retailer",
      "name": "is_active",
      "description": "Whether the retailer is active"
    }
  ],
  "response_fields": [

  ],
  "requests": [
    {
      "request_method": "PATCH",
      "request_path": "/retailers/27",
      "request_body": "retailer[name]=Rerum+corrupti+eos+quia+et+recusandae+sit+et.&retailer[sort_name]=Rerum+corrupti+eos+quia+et+recusandae+sit+et.&retailer[seo_slug]=rerum-corrupti-eos-quia-et-recusandae-sit-et&retailer[description]=Recusandae+et+illum+eligendi+et+placeat+est+ipsam.&retailer[nick_name]=Rerum+corrupti+eos+quia+et+recusandae+sit+et.&retailer[phone]=1-344-556-9443&retailer[email]=skyla_brown%40ernser.net&retailer[url]=http%3A%2F%2Fhirthe.com%2Fzula&retailer[url_text]=http%3A%2F%2Fwyman.com%2Fjada.ratke&retailer[store_text]=Commodi+similique+sint+deserunt+beatae+harum.&retailer[is_active]=true&account_id=80&account_token=b73069e7116be5db225c4e633cfbbbda&timestamp=1460572355",
      "request_headers": {
        "Host": "example.org",
        "Content-Type": "application/x-www-form-urlencoded",
        "Cookie": ""
      },
      "request_query_parameters": {
      },
      "request_content_type": "application/x-www-form-urlencoded",
      "response_status": 200,
      "response_status_text": "OK",
      "response_body": "{\"images\":[],\"tags\":[],\"keywords\":[],\"retailer\":{\"id\":27,\"name\":\"Rerum corrupti eos quia et recusandae sit et.\",\"sort_name\":\"Rerum corrupti eos quia et recusandae sit et.\",\"seo_slug\":\"rerum-corrupti-eos-quia-et-recusandae-sit-et\",\"description\":\"Recusandae et illum eligendi et placeat est ipsam.\",\"nick_name\":\"Rerum corrupti eos quia et recusandae sit et.\",\"phone\":\"1-344-556-9443\",\"email\":\"skyla_brown@ernser.net\",\"url\":\"http://hirthe.com/zula\",\"url_text\":\"http://wyman.com/jada.ratke\",\"store_text\":\"Commodi similique sint deserunt beatae harum.\",\"created_at\":\"2016-04-13T18:32:35.532Z\",\"updated_at\":\"2016-04-13T18:32:35.739Z\",\"image_ids\":[],\"tag_ids\":[],\"keyword_ids\":[],\"store_ids\":[21]}}",
      "response_headers": {
        "X-Frame-Options": "SAMEORIGIN",
        "X-XSS-Protection": "1; mode=block",
        "X-Content-Type-Options": "nosniff",
        "X-API-Version": "v11.2.3",
        "Content-Type": "application/json; charset=utf-8",
        "Vary": "Origin",
        "X-Rack-CORS": "preflight-hit; no-origin",
        "ETag": "W/\"5c73cdb50f87c7ac29106762ef219b30\"",
        "Cache-Control": "max-age=0, private, must-revalidate",
        "X-Request-Id": "5e2be80e-f93f-4009-8413-8591b6337248",
        "X-Runtime": "0.029132",
        "Content-Length": "691"
      },
      "response_content_type": "application/json; charset=utf-8",
      "curl": null
    }
  ]
}