{
  "resource": "Locations",
  "http_method": "DELETE",
  "route": "/locations/:id",
  "description": "Delete a location",
  "explanation": null,
  "parameters": [
    {
      "name": "id",
      "description": "The id of the location to delete"
    }
  ],
  "response_fields": [

  ],
  "requests": [
    {
      "request_method": "DELETE",
      "request_path": "/locations/4",
      "request_body": "account_id=10&account_token=a463eac4a2b3f125356e215dfd0f3b0c&timestamp=1460572347",
      "request_headers": {
        "Host": "example.org",
        "Content-Type": "application/x-www-form-urlencoded",
        "Cookie": ""
      },
      "request_query_parameters": {
      },
      "request_content_type": "application/x-www-form-urlencoded",
      "response_status": 204,
      "response_status_text": "No Content",
      "response_body": null,
      "response_headers": {
        "X-Frame-Options": "SAMEORIGIN",
        "X-XSS-Protection": "1; mode=block",
        "X-Content-Type-Options": "nosniff",
        "X-API-Version": "v11.2.3",
        "Vary": "Origin",
        "X-Rack-CORS": "preflight-hit; no-origin",
        "Cache-Control": "no-cache",
        "X-Request-Id": "0bf0b584-c7bc-4563-9c89-6b7c9ba64ff8",
        "X-Runtime": "0.085297"
      },
      "response_content_type": null,
      "curl": null
    }
  ]
}