{
  "resource": "Affinities",
  "http_method": "DELETE",
  "route": "/affinities/:id",
  "description": "Delete an affinity",
  "explanation": null,
  "parameters": [
    {
      "required": true,
      "name": "id",
      "description": "The id of the affinity to be deleted"
    }
  ],
  "response_fields": [

  ],
  "requests": [
    {
      "request_method": "DELETE",
      "request_path": "/affinities/6",
      "request_body": "account_id=54&account_token=239702fd2e5f49af5130bd8cb3763171&timestamp=1460572352",
      "request_headers": {
        "Host": "example.org",
        "Content-Type": "application/x-www-form-urlencoded",
        "Cookie": ""
      },
      "request_query_parameters": {
      },
      "request_content_type": "application/x-www-form-urlencoded",
      "response_status": 204,
      "response_status_text": "No Content",
      "response_body": null,
      "response_headers": {
        "X-Frame-Options": "SAMEORIGIN",
        "X-XSS-Protection": "1; mode=block",
        "X-Content-Type-Options": "nosniff",
        "X-API-Version": "v11.2.3",
        "Vary": "Origin",
        "X-Rack-CORS": "preflight-hit; no-origin",
        "Cache-Control": "no-cache",
        "X-Request-Id": "ff0bc624-f099-4757-8dce-153c609b69f5",
        "X-Runtime": "0.025104"
      },
      "response_content_type": null,
      "curl": null
    }
  ]
}