{
  "resource": "Companies",
  "http_method": "GET",
  "route": "/companies/:id/contacts",
  "description": "Get a list of contacts for a specific company",
  "explanation": null,
  "parameters": [
    {
      "required": true,
      "name": "id",
      "description": "The id of the company for which to retrieve contact information"
    },
    {
      "name": "limit",
      "description": "How many records to include, default: 10"
    },
    {
      "name": "offset",
      "description": "How many records to skip, default: 0"
    }
  ],
  "response_fields": [

  ],
  "requests": [
    {
      "request_method": "GET",
      "request_path": "/companies/28/contacts?account_id=68&account_token=b56d576fc08583f60a77320b7cc4ae7e&timestamp=1460572353",
      "request_body": null,
      "request_headers": {
        "Host": "example.org",
        "Cookie": ""
      },
      "request_query_parameters": {
        "account_id": "68",
        "account_token": "b56d576fc08583f60a77320b7cc4ae7e",
        "timestamp": "1460572353"
      },
      "request_content_type": null,
      "response_status": 200,
      "response_status_text": "OK",
      "response_body": "{\"contacts\":[{\"id\":3,\"name\":\"Wilfredo Nader DDS\",\"title\":\"Manager\",\"email\":\"novella@nienowkozey.net\",\"phone\":\"661.243.8901 x5808\",\"created_at\":\"2016-04-13T18:32:34.224Z\",\"updated_at\":\"2016-04-13T18:32:34.226Z\"}]}",
      "response_headers": {
        "X-Frame-Options": "SAMEORIGIN",
        "X-XSS-Protection": "1; mode=block",
        "X-Content-Type-Options": "nosniff",
        "X-API-Version": "v11.2.3",
        "ETag": "\"ac39b7ade21852bd17f0a7f4d0866489\"",
        "Content-Type": "application/json; charset=utf-8",
        "Cache-Control": "max-age=0, private, must-revalidate",
        "Vary": "Origin",
        "X-Rack-CORS": "preflight-hit; no-origin",
        "X-Request-Id": "f3316713-5051-4763-93c9-a75700e720c9",
        "X-Runtime": "0.027053",
        "Content-Length": "212"
      },
      "response_content_type": "application/json; charset=utf-8",
      "curl": null
    }
  ]
}