{
  "resource": "Companies",
  "http_method": "GET",
  "route": "/companies/:id",
  "description": "Get a specific company",
  "explanation": null,
  "parameters": [
    {
      "required": true,
      "name": "id",
      "description": "The id of the company to retrieve"
    }
  ],
  "response_fields": [

  ],
  "requests": [
    {
      "request_method": "GET",
      "request_path": "/companies/28?account_id=68&account_token=b56d576fc08583f60a77320b7cc4ae7e&timestamp=1460572353",
      "request_body": null,
      "request_headers": {
        "Host": "example.org",
        "Cookie": ""
      },
      "request_query_parameters": {
        "account_id": "68",
        "account_token": "b56d576fc08583f60a77320b7cc4ae7e",
        "timestamp": "1460572353"
      },
      "request_content_type": null,
      "response_status": 200,
      "response_status_text": "OK",
      "response_body": "{\"company\":{\"id\":28,\"name\":\"Roob-Quigley\",\"nick_name\":\"qui\",\"seo_slug\":\"roob-quigley\",\"address\":\"1049 Turcotte Trafficway\",\"city\":\"Reedstad\",\"state\":\"MI\",\"zip\":\"18037\",\"phone\":\"1-725-436-1812 x87367\",\"fax\":\"1-525-942-0685\",\"url\":\"http://huels.io/arely\",\"test_url\":\"http://shields.org/etha.gleason\",\"is_active\":true,\"created_at\":\"2016-04-13T18:32:33.952Z\",\"updated_at\":\"2016-04-13T18:32:33.952Z\"}}",
      "response_headers": {
        "X-Frame-Options": "SAMEORIGIN",
        "X-XSS-Protection": "1; mode=block",
        "X-Content-Type-Options": "nosniff",
        "X-API-Version": "v11.2.3",
        "ETag": "\"d5cbc5cf05b9b46b3641f98085edf0d1\"",
        "Last-Modified": "Wed, 13 Apr 2016 18:32:33 GMT",
        "Content-Type": "application/json; charset=utf-8",
        "Cache-Control": "max-age=0, private, must-revalidate",
        "Vary": "Origin",
        "X-Rack-CORS": "preflight-hit; no-origin",
        "X-Request-Id": "b8ac9740-7bf2-4da8-b927-c40b0c6a71e1",
        "X-Runtime": "0.026241",
        "Content-Length": "396"
      },
      "response_content_type": "application/json; charset=utf-8",
      "curl": null
    }
  ]
}