{
  "resource": "Companies",
  "http_method": "GET",
  "route": "/companies",
  "description": "Get a list of companies",
  "explanation": null,
  "parameters": [
    {
      "name": "limit",
      "description": "How many records to include, default: 10"
    },
    {
      "name": "offset",
      "description": "How many records to skip, default: 0"
    },
    {
      "name": "since",
      "description": "Skip records which have not been updated before this date (format: YYYY-MM-DD)"
    }
  ],
  "response_fields": [

  ],
  "requests": [
    {
      "request_method": "GET",
      "request_path": "/companies?account_id=68&account_token=b56d576fc08583f60a77320b7cc4ae7e&timestamp=1460572353",
      "request_body": null,
      "request_headers": {
        "Host": "example.org",
        "Cookie": ""
      },
      "request_query_parameters": {
        "account_id": "68",
        "account_token": "b56d576fc08583f60a77320b7cc4ae7e",
        "timestamp": "1460572353"
      },
      "request_content_type": null,
      "response_status": 200,
      "response_status_text": "OK",
      "response_body": "{\"companies\":[{\"id\":28,\"name\":\"Roob-Quigley\",\"nick_name\":\"qui\",\"seo_slug\":\"roob-quigley\",\"address\":\"1049 Turcotte Trafficway\",\"city\":\"Reedstad\",\"state\":\"MI\",\"zip\":\"18037\",\"phone\":\"1-725-436-1812 x87367\",\"fax\":\"1-525-942-0685\",\"url\":\"http://huels.io/arely\",\"test_url\":\"http://shields.org/etha.gleason\",\"is_active\":true,\"created_at\":\"2016-04-13T18:32:33.952Z\",\"updated_at\":\"2016-04-13T18:32:33.952Z\"}]}",
      "response_headers": {
        "X-Frame-Options": "SAMEORIGIN",
        "X-XSS-Protection": "1; mode=block",
        "X-Content-Type-Options": "nosniff",
        "X-API-Version": "v11.2.3",
        "ETag": "\"d5cbc5cf05b9b46b3641f98085edf0d1\"",
        "Content-Type": "application/json; charset=utf-8",
        "Cache-Control": "max-age=0, private, must-revalidate",
        "Vary": "Origin",
        "X-Rack-CORS": "preflight-hit; no-origin",
        "X-Request-Id": "acb30a20-7685-4667-8413-fca119c91698",
        "X-Runtime": "0.042924",
        "Content-Length": "400"
      },
      "response_content_type": "application/json; charset=utf-8",
      "curl": null
    }
  ]
}