{
  "resource": "Theaters",
  "http_method": "GET",
  "route": "/theaters/:id",
  "description": "Get details for a specific theater",
  "explanation": null,
  "parameters": [
    {
      "required": true,
      "name": "id",
      "description": "The id of the theater"
    }
  ],
  "response_fields": [

  ],
  "requests": [
    {
      "request_method": "GET",
      "request_path": "/theaters/2?account_id=72&account_token=d239999b243f2d0981d0605d8d59edd7&timestamp=1460572354",
      "request_body": null,
      "request_headers": {
        "Host": "example.org",
        "Cookie": ""
      },
      "request_query_parameters": {
        "account_id": "72",
        "account_token": "d239999b243f2d0981d0605d8d59edd7",
        "timestamp": "1460572354"
      },
      "request_content_type": null,
      "response_status": 200,
      "response_status_text": "OK",
      "response_body": "{\"images\":[],\"theater\":{\"id\":2,\"name\":\"Crona Inc\",\"sort_name\":\"Crona Inc\",\"store_id\":17,\"seo_slug\":\"crona-inc\",\"address\":\"1628 Lew Valley\",\"city\":\"Lake Garretview\",\"state\":\"OR\",\"zip\":\"73389-2144\",\"phone\":\"301.350.1076 x9464\",\"open_at\":null,\"close_at\":null,\"url\":\"http://koch.io/raphaelle_pfannerstill\",\"created_at\":\"2016-04-13T18:32:34.356Z\",\"updated_at\":\"2016-04-13T18:32:34.356Z\",\"image_ids\":[]}}",
      "response_headers": {
        "X-Frame-Options": "SAMEORIGIN",
        "X-XSS-Protection": "1; mode=block",
        "X-Content-Type-Options": "nosniff",
        "X-API-Version": "v11.2.3",
        "ETag": "\"41555be2dfba28f7121ba33ec2e5ee6d\"",
        "Last-Modified": "Wed, 13 Apr 2016 18:32:34 GMT",
        "Content-Type": "application/json; charset=utf-8",
        "Cache-Control": "max-age=0, private, must-revalidate",
        "Vary": "Origin",
        "X-Rack-CORS": "preflight-hit; no-origin",
        "X-Request-Id": "703b6bb9-0e7a-4a01-b279-515a798afb7f",
        "X-Runtime": "0.042635",
        "Content-Length": "398"
      },
      "response_content_type": "application/json; charset=utf-8",
      "curl": null
    }
  ]
}