{
  "resource": "Images",
  "http_method": "GET",
  "route": "/images/:id",
  "description": "Get details about an image",
  "explanation": null,
  "parameters": [
    {
      "required": true,
      "name": "id",
      "description": "The image id"
    }
  ],
  "response_fields": [

  ],
  "requests": [
    {
      "request_method": "GET",
      "request_path": "/images/8?account_id=73&account_token=fd552e5d22875ed0294e93547c9c4d74&timestamp=1460572354",
      "request_body": null,
      "request_headers": {
        "Host": "example.org",
        "Cookie": ""
      },
      "request_query_parameters": {
        "account_id": "73",
        "account_token": "fd552e5d22875ed0294e93547c9c4d74",
        "timestamp": "1460572354"
      },
      "request_content_type": null,
      "response_status": 200,
      "response_status_text": "OK",
      "response_body": "{\"image\":{\"id\":8,\"url\":\"http://cdn.example.com/{width}/some-folder/rad-image.png\",\"size_parameter\":\"{width}\",\"cached_tag_list\":null,\"created_at\":\"2016-04-13T18:32:34.871Z\",\"updated_at\":\"2016-04-13T18:32:34.871Z\"}}",
      "response_headers": {
        "X-Frame-Options": "SAMEORIGIN",
        "X-XSS-Protection": "1; mode=block",
        "X-Content-Type-Options": "nosniff",
        "X-API-Version": "v11.2.3",
        "ETag": "\"55e02756a3986dabba99ae98f5e4630f\"",
        "Last-Modified": "Wed, 13 Apr 2016 18:32:34 GMT",
        "Content-Type": "application/json; charset=utf-8",
        "Cache-Control": "max-age=0, private, must-revalidate",
        "Vary": "Origin",
        "X-Rack-CORS": "preflight-hit; no-origin",
        "X-Request-Id": "49cb047a-10bf-4792-bd8c-19943b5467e5",
        "X-Runtime": "0.021864",
        "Content-Length": "213"
      },
      "response_content_type": "application/json; charset=utf-8",
      "curl": null
    }
  ]
}