{
  "resource": "Accounts",
  "http_method": "GET",
  "route": "/accounts/:id/affinities",
  "description": "Get affinities belonging to an account",
  "explanation": null,
  "parameters": [
    {
      "required": true,
      "name": "id",
      "description": "The id of the account to show affinities for"
    },
    {
      "required": true,
      "name": "timestamp",
      "description": "The timestamp used to sign the request"
    }
  ],
  "response_fields": [

  ],
  "requests": [
    {
      "request_method": "GET",
      "request_path": "/accounts/24/affinities?account_id=24&account_token=7cbfd7b8064f34468e988c8351067c69&timestamp=1460572350",
      "request_body": null,
      "request_headers": {
        "Host": "example.org",
        "Cookie": ""
      },
      "request_query_parameters": {
        "account_id": "24",
        "account_token": "7cbfd7b8064f34468e988c8351067c69",
        "timestamp": "1460572350"
      },
      "request_content_type": null,
      "response_status": 200,
      "response_status_text": "OK",
      "response_body": "{\"affinities\":[{\"id\":1,\"heartable_id\":8220,\"heartable_type\":\"Retailer\",\"created_at\":\"2016-04-13T18:32:30.104Z\",\"updated_at\":\"2016-04-13T18:32:30.104Z\"}]}",
      "response_headers": {
        "X-Frame-Options": "SAMEORIGIN",
        "X-XSS-Protection": "1; mode=block",
        "X-Content-Type-Options": "nosniff",
        "X-API-Version": "v11.2.3",
        "ETag": "\"3e7c87e2e6cca9a8f0b88d1c55b88d83\"",
        "Content-Type": "application/json; charset=utf-8",
        "Cache-Control": "max-age=0, private, must-revalidate",
        "Vary": "Origin",
        "X-Rack-CORS": "preflight-hit; no-origin",
        "X-Request-Id": "4cf5e460-382b-4333-b843-a90357839045",
        "X-Runtime": "0.032836",
        "Content-Length": "153"
      },
      "response_content_type": "application/json; charset=utf-8",
      "curl": null
    }
  ]
}