{
  "resource": "Accounts",
  "http_method": "DELETE",
  "route": "/accounts/logout",
  "description": "Terminate a session",
  "explanation": null,
  "parameters": [
    {
      "name": "account",
      "description": "The credentials for your account"
    }
  ],
  "response_fields": [

  ],
  "requests": [
    {
      "request_method": "DELETE",
      "request_path": "/accounts/logout",
      "request_body": "account=%23%3CAccount%3A0x007fea5e3883f8%3E&account_id=44&account_token=f0a0d2ba2c733fa5bcc79f4e030fda00&timestamp=1460572351&format=json",
      "request_headers": {
        "Host": "example.org",
        "Content-Type": "application/x-www-form-urlencoded",
        "Cookie": ""
      },
      "request_query_parameters": {
      },
      "request_content_type": "application/x-www-form-urlencoded",
      "response_status": 204,
      "response_status_text": "No Content",
      "response_body": null,
      "response_headers": {
        "X-Frame-Options": "SAMEORIGIN",
        "X-XSS-Protection": "1; mode=block",
        "X-Content-Type-Options": "nosniff",
        "X-API-Version": "v11.2.3",
        "Vary": "Origin",
        "X-Rack-CORS": "preflight-hit; no-origin",
        "Cache-Control": "no-cache",
        "Set-Cookie": "_API_session=RVZ1blNCM3JpTjBUYmtvV2w1Ui9ONWVRUVZqa3hCUG9hb2xhNk12cVlUNDhhZ09yWkxrYjNEdTVRMFdMWmFrWU5IR2FBWnJOT1llQyszUzhzVEYwdGc9PS0tcTBwN3d1S09sa29XdlE5VWluSURnUT09--248805c3a573655337576c8dac7b3ba32c48cdfa; path=/; HttpOnly",
        "X-Request-Id": "0b15f9ac-c38b-431c-80ee-e153358794fe",
        "X-Runtime": "0.030285"
      },
      "response_content_type": null,
      "curl": null
    }
  ]
}