{
  "resource": "Accounts",
  "http_method": "POST",
  "route": "/accounts/reset",
  "description": "Use a token to reset the password for the account",
  "explanation": null,
  "parameters": [
    {
      "scope": "account",
      "name": "reset_password_token",
      "description": "The reset token sent via email"
    },
    {
      "scope": "account",
      "name": "password",
      "description": "The new password"
    },
    {
      "scope": "account",
      "name": "password_confirmation",
      "description": "Confirm the new password"
    }
  ],
  "response_fields": [

  ],
  "requests": [
    {
      "request_method": "POST",
      "request_path": "/accounts/reset",
      "request_body": "account[reset_password_token]=74393528a184c49eaa6e43e40b70948b6045634c&account[password]=6cfa61c1ab747ef8b38369c674daf1adee4def1039bca17ee8&account[password_confirmation]=6cfa61c1ab747ef8b38369c674daf1adee4def1039bca17ee8",
      "request_headers": {
        "Host": "example.org",
        "Content-Type": "application/x-www-form-urlencoded",
        "Cookie": ""
      },
      "request_query_parameters": {
      },
      "request_content_type": "application/x-www-form-urlencoded",
      "response_status": 201,
      "response_status_text": "Created",
      "response_body": "{\"account\":{\"id\":39,\"email\":\"okey@hintz.io\",\"authentication_token\":\"eemZpbDAzypa4Z9p8puS\",\"created_at\":\"2016-04-13T18:32:30.670Z\",\"updated_at\":\"2016-04-13T18:32:30.674Z\",\"confirmed_at\":\"2016-04-13T18:32:30.664Z\",\"properties\":{},\"mall_ids\":[]}}",
      "response_headers": {
        "X-Frame-Options": "SAMEORIGIN",
        "X-XSS-Protection": "1; mode=block",
        "X-Content-Type-Options": "nosniff",
        "X-API-Version": "v11.2.3",
        "Location": "http://example.org/accounts/39",
        "Content-Type": "application/json; charset=utf-8",
        "Vary": "Origin",
        "X-Rack-CORS": "preflight-hit; no-origin",
        "ETag": "W/\"60126afa429f582ce072f4db65d11d41\"",
        "Cache-Control": "max-age=0, private, must-revalidate",
        "X-Request-Id": "d7c30444-a5d5-4249-a49a-cd3fce1e01cd",
        "X-Runtime": "0.051522",
        "Content-Length": "243"
      },
      "response_content_type": "application/json; charset=utf-8",
      "curl": null
    }
  ]
}