{
  "resource": "Stores",
  "http_method": "GET",
  "route": "/stores",
  "description": "Get a list of stores",
  "explanation": null,
  "parameters": [
    {
      "name": "limit",
      "description": "How many records to include, default: 10"
    },
    {
      "name": "offset",
      "description": "How many records to skip, default: 0"
    },
    {
      "name": "since",
      "description": "Skip records which have not been updated before this date (format: YYYY-MM-DD)"
    },
    {
      "name": "q",
      "description": "Term for searching stores by name"
    }
  ],
  "response_fields": [

  ],
  "requests": [
    {
      "request_method": "GET",
      "request_path": "/stores?account_id=55&account_token=578464f38df613fe363164cb4cd5deb7&timestamp=1460572352",
      "request_body": null,
      "request_headers": {
        "Host": "example.org",
        "Cookie": ""
      },
      "request_query_parameters": {
        "account_id": "55",
        "account_token": "578464f38df613fe363164cb4cd5deb7",
        "timestamp": "1460572352"
      },
      "request_content_type": null,
      "response_status": 200,
      "response_status_text": "OK",
      "response_body": "{\"images\":[],\"tags\":[],\"groups\":[],\"keywords\":[],\"stores\":[{\"id\":13,\"name\":\"Romaguera-Buckridge\",\"sort_name\":\"Romaguera-Buckridge\",\"seo_slug\":\"romaguera-buckridge\",\"address\":\"227 Mayert Orchard\",\"city\":\"East Shanemouth\",\"state\":\"TN\",\"zip\":\"85639\",\"phone\":\"(919) 604-5730 x774\",\"mall_name\":\"King, Stracke and Huels\",\"tenant_location\":\"Downstairs by the Food Court\",\"tenant_location_map_key\":\"C-37\",\"exclude_national_deals\":false,\"mall_id\":22,\"retailer_id\":18,\"distance\":null,\"hours\":\"Sunday-Thursday: 11AM- Midnight \\u003cbr\\u003eFriday \\u0026 Saturday: 11AM - 2AM\",\"description\":\"Dolorum nobis unde doloribus fuga molestiae qui sunt est.\",\"latitude\":70.7227638040195,\"longitude\":-112.508186623047,\"url\":\"http://reynolds.co/valentine\",\"url_text\":\"http://torphy.name/americo.roob\",\"retailer_url\":\"http://mayert.com/darlene\",\"opening_date\":\"2016-04-11T00:00:00.000Z\",\"opening_text\":\"Mollitia voluptatem tempora nemo quod occaecati sint rerum.\",\"created_at\":\"2016-04-13T18:32:32.682Z\",\"updated_at\":\"2016-04-13T18:32:32.682Z\",\"image_ids\":[],\"tag_ids\":[],\"group_ids\":[],\"keyword_ids\":[]}]}",
      "response_headers": {
        "X-Frame-Options": "SAMEORIGIN",
        "X-XSS-Protection": "1; mode=block",
        "X-Content-Type-Options": "nosniff",
        "X-API-Version": "v11.2.3",
        "ETag": "\"ad4ef4c45cb694597cb33d679484556e\"",
        "Content-Type": "application/json; charset=utf-8",
        "Cache-Control": "max-age=0, private, must-revalidate",
        "Vary": "Origin",
        "X-Rack-CORS": "preflight-hit; no-origin",
        "X-Request-Id": "cf7aeaa5-2c25-455c-8981-a32ed33cb881",
        "X-Runtime": "0.052619",
        "Content-Length": "1083"
      },
      "response_content_type": "application/json; charset=utf-8",
      "curl": null
    }
  ]
}