{
  "resource": "Stores",
  "http_method": "GET",
  "route": "/stores/:id/social-feeds",
  "description": "Get a list of social network feeds for a specific store",
  "explanation": null,
  "parameters": [
    {
      "required": true,
      "name": "id",
      "description": "The id of the store for which to retrieve social network feeds"
    },
    {
      "name": "limit",
      "description": "How many records to include, default: 10"
    },
    {
      "name": "offset",
      "description": "How many records to skip, default: 0"
    }
  ],
  "response_fields": [

  ],
  "requests": [
    {
      "request_method": "GET",
      "request_path": "/stores/13/social-feeds?account_id=55&account_token=578464f38df613fe363164cb4cd5deb7&timestamp=1460572352",
      "request_body": null,
      "request_headers": {
        "Host": "example.org",
        "Cookie": ""
      },
      "request_query_parameters": {
        "account_id": "55",
        "account_token": "578464f38df613fe363164cb4cd5deb7",
        "timestamp": "1460572352"
      },
      "request_content_type": null,
      "response_status": 200,
      "response_status_text": "OK",
      "response_body": "{\"social_feeds\":[{\"id\":6,\"properties\":{\"url\":\"https://myface.com/Mall1\",\"appID\":\"0123abcf0123abcf0123abcf0123abcf\"},\"name\":\"MyFace\",\"created_at\":\"2016-04-13T18:32:33.344Z\",\"updated_at\":\"2016-04-13T18:32:33.346Z\"}],\"retailer_social_feeds\":[]}",
      "response_headers": {
        "X-Frame-Options": "SAMEORIGIN",
        "X-XSS-Protection": "1; mode=block",
        "X-Content-Type-Options": "nosniff",
        "X-API-Version": "v11.2.3",
        "ETag": "\"21caca49b2c1d00b83ebae6db26718d3\"",
        "Content-Type": "application/json; charset=utf-8",
        "Cache-Control": "max-age=0, private, must-revalidate",
        "Vary": "Origin",
        "X-Rack-CORS": "preflight-hit; no-origin",
        "X-Request-Id": "f168a56a-f55a-4caa-b6ae-b70d9b51f0b5",
        "X-Runtime": "0.050488",
        "Content-Length": "241"
      },
      "response_content_type": "application/json; charset=utf-8",
      "curl": null
    }
  ]
}